HW2
…
5. Find the average value of sales for the companies in each country

forbes %>% 
  group_by(country) %>% 
  summarise(avg = mean(sales, na.rm = T)) %>% 
  arrange(desc(avg))

## # A tibble: 61 x 2
##                        country      avg
##                         <fctr>    <dbl>
##  1 Netherlands/ United Kingdom 92.10000
##  2                     Germany 20.78138
##  3                      France 20.10206
##  4                 Netherlands 17.02071
##  5                       Korea 15.00500
##  6                  Luxembourg 14.18500
##  7                 Switzerland 12.45676
##  8   Australia/ United Kingdom 11.59500
##  9                      Norway 10.78000
## 10              United Kingdom 10.44511
## # ... with 51 more rows
…
